[
  {
    "parentId": null,
    "commentId": 69,
    "name": "at aut ea iure accusantium voluptatum nihil ipsum",
    "created_at": "2017-12-23 14:45:06",
    "updated_at": "2017-12-23 14:45:06",
    "liked": false,
    "reported": false,
    "likes": [
      {
        "username": "someUser",
        "user_id": 345,
        "image": "https://ireview.live/img/no-user.png"
      },
            {
        "username": "someUser",
        "user_id": 345,
        "image": "https://ireview.live/img/no-user.png"
      }
    ],
    "email": "testUser",
    "body": "comentario 1",
    
  },
  {
    "parentId": null,
    "commentId": 69,
    "name": "at aut ea iure accusantium voluptatum nihil ipsum",
    "created_at": "2017-12-23 14:45:06",
    "updated_at": "2017-12-23 14:45:06",
    "liked": false,
    "reported": false,
    "likes": [
      {
        "username": "someUser",
        "user_id": 345,
        "image": "https://ireview.live/img/no-user.png"
      }
    ],
    "email": "testUser",
    "body": "comentario 2",
    
  }
]