 [{
  "name": "production",
  "appid": "1dd9a8a7-9189-4bf7-bac9-3d079e50cea0",
  "accesstoken": "26h2hk97f95x9bk5emyuncwh",
  "analytics": true,
  "location": true,
  "inbox": true
  },
  {
  "name": "development",
  "appid": "1dd9a8a7-9189-4bf7-bac9-3d079e50cea0",
  "accesstoken": "26h2hk97f95x9bk5emyuncwh",
  "analytics": true,
  "location": true,
  "inbox": true
  }
  ]
